\relax 
\providecommand\hyper@newdestlabel[2]{}
\providecommand\HyperFirstAtBeginDocument{\AtBeginDocument}
\HyperFirstAtBeginDocument{\ifx\hyper@anchor\@undefined
\global\let\oldcontentsline\contentsline
\gdef\contentsline#1#2#3#4{\oldcontentsline{#1}{#2}{#3}}
\global\let\oldnewlabel\newlabel
\gdef\newlabel#1#2{\newlabelxx{#1}#2}
\gdef\newlabelxx#1#2#3#4#5#6{\oldnewlabel{#1}{{#2}{#3}}}
\AtEndDocument{\ifx\hyper@anchor\@undefined
\let\contentsline\oldcontentsline
\let\newlabel\oldnewlabel
\fi}
\fi}
\global\let\hyper@last\relax 
\gdef\HyperFirstAtBeginDocument#1{#1}
\providecommand\HyField@AuxAddToFields[1]{}
\providecommand\HyField@AuxAddToCoFields[2]{}
\select@language{english}
\@writefile{toc}{\select@language{english}}
\@writefile{lof}{\select@language{english}}
\@writefile{lot}{\select@language{english}}
\newlabel{index::doc}{{}{1}{}{section*.2}{}}
\newlabel{index:esurvey}{{}{1}{}{section*.3}{}}
\@writefile{toc}{\contentsline {chapter}{\numberline {1}Pacific EMIS Overview}{3}{chapter.1}}
\@writefile{lof}{\addvspace {10\p@ }}
\@writefile{lot}{\addvspace {10\p@ }}
\@writefile{loliteral-block}{\addvspace {10\p@ }}
\newlabel{index:pacific-emis-user-guide}{{1}{3}{Pacific EMIS Overview}{chapter.1}{}}
\newlabel{index:pacific-emis-overview}{{1}{3}{Pacific EMIS Overview}{chapter.1}{}}
\@writefile{toc}{\contentsline {section}{\numberline {1.1}Brief History}{3}{section.1.1}}
\newlabel{index:brief-history}{{1.1}{3}{Brief History}{section.1.1}{}}
\@writefile{toc}{\contentsline {section}{\numberline {1.2}Accessing and Login}{3}{section.1.2}}
\newlabel{index:accessing-and-login}{{1.2}{3}{Accessing and Login}{section.1.2}{}}
\@writefile{toc}{\contentsline {section}{\numberline {1.3}Overview of Features (Modules)}{3}{section.1.3}}
\newlabel{index:overview-of-features-modules}{{1.3}{3}{Overview of Features (Modules)}{section.1.3}{}}
\@writefile{toc}{\contentsline {chapter}{\numberline {2}Education Indicators (At a Glance)}{5}{chapter.2}}
\@writefile{lof}{\addvspace {10\p@ }}
\@writefile{lot}{\addvspace {10\p@ }}
\@writefile{loliteral-block}{\addvspace {10\p@ }}
\newlabel{index:education-indicators-at-a-glance}{{2}{5}{Education Indicators (At a Glance)}{chapter.2}{}}
\@writefile{toc}{\contentsline {chapter}{\numberline {3}Managing Schools}{7}{chapter.3}}
\@writefile{lof}{\addvspace {10\p@ }}
\@writefile{lot}{\addvspace {10\p@ }}
\@writefile{loliteral-block}{\addvspace {10\p@ }}
\newlabel{index:managing-schools}{{3}{7}{Managing Schools}{chapter.3}{}}
\@writefile{toc}{\contentsline {chapter}{\numberline {4}Managing Teachers}{9}{chapter.4}}
\@writefile{lof}{\addvspace {10\p@ }}
\@writefile{lot}{\addvspace {10\p@ }}
\@writefile{loliteral-block}{\addvspace {10\p@ }}
\newlabel{index:managing-teachers}{{4}{9}{Managing Teachers}{chapter.4}{}}
\@writefile{toc}{\contentsline {chapter}{\numberline {5}Managing Performance Assessment}{11}{chapter.5}}
\@writefile{lof}{\addvspace {10\p@ }}
\@writefile{lot}{\addvspace {10\p@ }}
\@writefile{loliteral-block}{\addvspace {10\p@ }}
\newlabel{index:managing-performance-assessment}{{5}{11}{Managing Performance Assessment}{chapter.5}{}}
\@writefile{toc}{\contentsline {chapter}{\numberline {6}Managing Surveys}{13}{chapter.6}}
\@writefile{lof}{\addvspace {10\p@ }}
\@writefile{lot}{\addvspace {10\p@ }}
\@writefile{loliteral-block}{\addvspace {10\p@ }}
\newlabel{index:managing-surveys}{{6}{13}{Managing Surveys}{chapter.6}{}}
\@writefile{toc}{\contentsline {section}{\numberline {6.1}Online Web Application Survey Submission}{13}{section.6.1}}
\newlabel{index:online-web-application-survey-submission}{{6.1}{13}{Online Web Application Survey Submission}{section.6.1}{}}
\@writefile{toc}{\contentsline {section}{\numberline {6.2}PDF eSurvey Submission}{13}{section.6.2}}
\newlabel{index:pdf-esurvey-submission}{{6.2}{13}{PDF eSurvey Submission}{section.6.2}{}}
\@writefile{toc}{\contentsline {chapter}{\numberline {7}Indices and tables}{15}{chapter.7}}
\@writefile{lof}{\addvspace {10\p@ }}
\@writefile{lot}{\addvspace {10\p@ }}
\@writefile{loliteral-block}{\addvspace {10\p@ }}
\newlabel{index:indices-and-tables}{{7}{15}{Indices and tables}{chapter.7}{}}
