\BOOKMARK [0][-]{chapter.1}{Introduction}{}% 1
\BOOKMARK [1][-]{section.1.1}{Project Overview}{chapter.1}% 2
\BOOKMARK [1][-]{section.1.2}{Project Structure}{chapter.1}% 3
\BOOKMARK [1][-]{section.1.3}{Programming Language}{chapter.1}% 4
\BOOKMARK [1][-]{section.1.4}{Development Web Stack}{chapter.1}% 5
\BOOKMARK [1][-]{section.1.5}{Database and Operating System}{chapter.1}% 6
\BOOKMARK [0][-]{chapter.2}{Setting Up the Development Environment}{}% 7
\BOOKMARK [1][-]{section.2.1}{Main Development Tools}{chapter.2}% 8
\BOOKMARK [1][-]{section.2.2}{Software Configuration Management}{chapter.2}% 9
\BOOKMARK [1][-]{section.2.3}{Visual Studio Setup}{chapter.2}% 10
\BOOKMARK [1][-]{section.2.4}{Databases Setup}{chapter.2}% 11
\BOOKMARK [1][-]{section.2.5}{Building the Solution}{chapter.2}% 12
\BOOKMARK [1][-]{section.2.6}{Frontend Development Tools}{chapter.2}% 13
\BOOKMARK [0][-]{chapter.3}{Development Work-flow}{}% 14
\BOOKMARK [1][-]{section.3.1}{Contribute New Code in Branches Uninterrupted}{chapter.3}% 15
\BOOKMARK [1][-]{section.3.2}{Contribute New Code in Branches Interrupted}{chapter.3}% 16
\BOOKMARK [1][-]{section.3.3}{Database Schema Changes}{chapter.3}% 17
\BOOKMARK [1][-]{section.3.4}{Testing Code}{chapter.3}% 18
\BOOKMARK [0][-]{chapter.4}{High Level Architecture}{}% 19
\BOOKMARK [1][-]{section.4.1}{Data Retrieval Service}{chapter.4}% 20
\BOOKMARK [1][-]{section.4.2}{Templates}{chapter.4}% 21
\BOOKMARK [1][-]{section.4.3}{Theme \(Look and Feel\)}{chapter.4}% 22
\BOOKMARK [1][-]{section.4.4}{Navigation and Module System}{chapter.4}% 23
\BOOKMARK [1][-]{section.4.5}{Lookups and Configuration}{chapter.4}% 24
\BOOKMARK [0][-]{chapter.5}{Low Level Documentation and API}{}% 25
\BOOKMARK [0][-]{chapter.6}{eSurvey Technology}{}% 26
\BOOKMARK [1][-]{section.6.1}{Creating/Editing the PDF eSurvey}{chapter.6}% 27
\BOOKMARK [1][-]{section.6.2}{PDF eSurvey Manager}{chapter.6}% 28
\BOOKMARK [1][-]{section.6.3}{PDF eSurvey Process}{chapter.6}% 29
\BOOKMARK [0][-]{chapter.7}{Security Considerations}{}% 30
\BOOKMARK [1][-]{section.7.1}{Authentication}{chapter.7}% 31
\BOOKMARK [1][-]{section.7.2}{Authorization}{chapter.7}% 32
\BOOKMARK [1][-]{section.7.3}{SSL/TLS Encryption}{chapter.7}% 33
\BOOKMARK [1][-]{section.7.4}{Latest Top 10 Security Risks}{chapter.7}% 34
\BOOKMARK [1][-]{section.7.5}{Integrated Penetration Testing}{chapter.7}% 35
\BOOKMARK [0][-]{chapter.8}{Project Documentation}{}% 36
\BOOKMARK [0][-]{chapter.9}{Indices and tables}{}% 37
\BOOKMARK [0][-]{chapter*.6}{Bibliography}{}% 38
